ILO
…
ℹ Use `spec()` to retrieve the full column specification for this data.
ℹ Specify the column types or set `show_col_types = FALSE` to quiet this message.

見てみる

ダウンロードしたファイルでは、time は、Chr になっているが、一旦保存し、read_csv で読み込むと、すでに、Dbl になっている。

Code

df_ilo_wages

# A tibble: 353,008 × 12
   ref_area source indicator  sex   classif1 classif2  time obs_value obs_status
   <chr>    <chr>  <chr>      <chr> <chr>    <chr>    <dbl>     <dbl> <chr>     
 1 ABW      AA:22  EAR_4MTH_… SEX_T ECO_AGG… CUR_TYP…  2010     3013  <NA>      
 2 ABW      AA:22  EAR_4MTH_… SEX_T ECO_AGG… CUR_TYP…  2010     1860. <NA>      
 3 ABW      AA:22  EAR_4MTH_… SEX_T ECO_AGG… CUR_TYP…  2010     1683. <NA>      
 4 ABW      AA:22  EAR_4MTH_… SEX_M ECO_AGG… CUR_TYP…  2010     3338  <NA>      
 5 ABW      AA:22  EAR_4MTH_… SEX_M ECO_AGG… CUR_TYP…  2010     2061. <NA>      
 6 ABW      AA:22  EAR_4MTH_… SEX_M ECO_AGG… CUR_TYP…  2010     1865. <NA>      
 7 ABW      AA:22  EAR_4MTH_… SEX_F ECO_AGG… CUR_TYP…  2010     2713  <NA>      
 8 ABW      AA:22  EAR_4MTH_… SEX_F ECO_AGG… CUR_TYP…  2010     1675. <NA>      
 9 ABW      AA:22  EAR_4MTH_… SEX_F ECO_AGG… CUR_TYP…  2010     1516. <NA>      
10 ABW      AA:22  EAR_4MTH_… SEX_T ECO_ISI… CUR_TYP…  2010     3013  <NA>      
# ℹ 352,998 more rows
# ℹ 3 more variables: note_classif <chr>, note_indicator <chr>,
#   note_source <chr>
…
$classif2
[1] "CUR_TYPE_LCU" "CUR_TYPE_PPP" "CUR_TYPE_USD"

classif1 と classif2 の意味を確認する必要があるので、辞書機能を使って、みてみる。

Code

get_ilostat_dic("classif1") |> filter(grepl("ECO", classif1))

# A tibble: 86 × 2
   classif1            classif1.label                                           
   <chr>               <chr>                                                    
 1 ECO_AGNAG_TOTAL     Economic activity (Agriculture, Non-Agriculture): Total  
 2 ECO_AGNAG_AGR       Economic activity (Agriculture, Non-Agriculture): Agricu…
 3 ECO_AGNAG_NAG       Economic activity (Agriculture, Non-Agriculture): Non-ag…
 4 ECO_SECTOR_TOTAL    Economic activity (Broad sector): Total                  
 5 ECO_SECTOR_AGR      Economic activity (Broad sector): Agriculture            
 6 ECO_SECTOR_NAG      Economic activity (Broad sector): Non-agriculture        
 7 ECO_SECTOR_IND      Economic activity (Broad sector): Industry               
 8 ECO_SECTOR_SER      Economic activity (Broad sector): Services               
 9 ECO_SECTOR_X        Economic activity (Broad sector): Not classified         
10 ECO_AGGREGATE_TOTAL Economic activity (Aggregate): Total                     
# ℹ 76 more rows
…
Import Data with an Option

type = “both” とすると、指標の内容も書かれていて、get_ilostat_dic() を使わなくて良いが、余分なものが多くて見にくい面もある。

Code

df_ilo_wages_both <- get_ilostat("EAR_4MTH_SEX_ECO_CUR_NB_A", type = "both", cache = FALSE)
df_ilo_wages_both

# A tibble: 353,008 × 22
   ref_area ref_area.label source source.label   indicator indicator.label sex  
   <chr>    <chr>          <chr>  <chr>          <chr>     <chr>           <chr>
 1 ABW      Aruba          AA:22  PC - Populati… EAR_4MTH… Average monthl… SEX_T
 2 ABW      Aruba          AA:22  PC - Populati… EAR_4MTH… Average monthl… SEX_T
 3 ABW      Aruba          AA:22  PC - Populati… EAR_4MTH… Average monthl… SEX_T
 4 ABW      Aruba          AA:22  PC - Populati… EAR_4MTH… Average monthl… SEX_M
 5 ABW      Aruba          AA:22  PC - Populati… EAR_4MTH… Average monthl… SEX_M
 6 ABW      Aruba          AA:22  PC - Populati… EAR_4MTH… Average monthl… SEX_M
 7 ABW      Aruba          AA:22  PC - Populati… EAR_4MTH… Average monthl… SEX_F
 8 ABW      Aruba          AA:22  PC - Populati… EAR_4MTH… Average monthl… SEX_F
 9 ABW      Aruba          AA:22  PC - Populati… EAR_4MTH… Average monthl… SEX_F
10 ABW      Aruba          AA:22  PC - Populati… EAR_4MTH… Average monthl… SEX_T
# ℹ 352,998 more rows
# ℹ 15 more variables: sex.label <chr>, classif1 <chr>, classif1.label <chr>,
#   classif2 <chr>, classif2.label <chr>, time <chr>, obs_value <dbl>,
#   obs_status <chr>, obs_status.label <chr>, note_classif <chr>,
#   note_classif.label <chr>, note_indicator <chr>, note_indicator.label <chr>,
#   note_source <chr>, note_source.label <chr>
…
id_income <- get_ilostat_toc(search = 'income') |> pull(id) |> unique()
id_income

[1] "SDG_1041_NOC_RT_A" "LAP_2GDP_NOC_RT_A" "LAP_2LID_QTL_RT_A"
[4] "LAP_2FTM_NOC_RT_A"

SDG_1041_NOC_RT_A: SDG indicator 10.4.1 - Labour income share as a percent of GDP (%)

Code

df_sdg_lis <- get_ilostat("SDG_1041_NOC_RT_A", cache = FALSE) |> 
  mutate(time = as.numeric(time))
df_sdg_lis

# A tibble: 3,383 × 5
   ref_area source  indicator        time obs_value
   <chr>    <chr>   <chr>           <dbl>     <dbl>
 1 AFG      XA:2198 SDG_1041_NOC_RT  2020      45.0
 2 AFG      XA:2198 SDG_1041_NOC_RT  2019      44.0
 3 AFG      XA:2198 SDG_1041_NOC_RT  2018      44.4
 4 AFG      XA:2198 SDG_1041_NOC_RT  2017      44.3
 5 AFG      XA:2198 SDG_1041_NOC_RT  2016      44.4
 6 AFG      XA:2198 SDG_1041_NOC_RT  2015      44.5
 7 AFG      XA:2198 SDG_1041_NOC_RT  2014      44.4
 8 AFG      XA:2198 SDG_1041_NOC_RT  2013      44.0
 9 AFG      XA:2198 SDG_1041_NOC_RT  2012      43.0
10 AFG      XA:2198 SDG_1041_NOC_RT  2011      44.8
# ℹ 3,373 more rows

LAP_2GDP_NOC_RT_A: Labour income share as a percent of GDP -- ILO modelled estimates, Nov. 2021 (%)

Code

df_income_dist <- get_ilostat("LAP_2GDP_NOC_RT_A", cache = FALSE) |> 
  mutate(time = as.numeric(time))
df_income_dist

# A tibble: 4,607 × 6
   ref_area source  indicator        time obs_value obs_status
   <chr>    <chr>   <chr>           <dbl>     <dbl> <chr>     
 1 AFG      XA:2198 LAP_2GDP_NOC_RT  2020      45.0 I         
 2 AFG      XA:2198 LAP_2GDP_NOC_RT  2019      44.0 I         
 3 AFG      XA:2198 LAP_2GDP_NOC_RT  2018      44.4 I         
 4 AFG      XA:2198 LAP_2GDP_NOC_RT  2017      44.3 I         
 5 AFG      XA:2198 LAP_2GDP_NOC_RT  2016      44.4 I         
 6 AFG      XA:2198 LAP_2GDP_NOC_RT  2015      44.5 I         
 7 AFG      XA:2198 LAP_2GDP_NOC_RT  2014      44.4 I         
 8 AFG      XA:2198 LAP_2GDP_NOC_RT  2013      44.0 I         
 9 AFG      XA:2198 LAP_2GDP_NOC_RT  2012      43.0 I         
10 AFG      XA:2198 LAP_2GDP_NOC_RT  2011      44.8 I         
# ℹ 4,597 more rows

LAP_2LID_QTL_RT_A: Labour income distribution – ILO modelled estimates, Nov. 2021 (%)

Code

df_labor_income_share <- get_ilostat("LAP_2LID_QTL_RT_A", cache = FALSE) |> 
  mutate(time = as.numeric(time))
df_labor_income_share

# A tibble: 46,070 × 7
   ref_area source  indicator       classif1       time obs_value obs_status
   <chr>    <chr>   <chr>           <chr>         <dbl>     <dbl> <chr>     
 1 AFG      XA:2198 LAP_2LID_QTL_RT QTL_DECILE_01  2020      0.51 M         
 2 AFG      XA:2198 LAP_2LID_QTL_RT QTL_DECILE_02  2020      1.11 M         
 3 AFG      XA:2198 LAP_2LID_QTL_RT QTL_DECILE_03  2020      1.79 M         
 4 AFG      XA:2198 LAP_2LID_QTL_RT QTL_DECILE_04  2020      3.08 M         
 5 AFG      XA:2198 LAP_2LID_QTL_RT QTL_DECILE_05  2020      5    M         
 6 AFG      XA:2198 LAP_2LID_QTL_RT QTL_DECILE_06  2020      7.14 M         
 7 AFG      XA:2198 LAP_2LID_QTL_RT QTL_DECILE_07  2020     10.4  M         
 8 AFG      XA:2198 LAP_2LID_QTL_RT QTL_DECILE_08  2020     14.0  M         
 9 AFG      XA:2198 LAP_2LID_QTL_RT QTL_DECILE_09  2020     19.3  M         
10 AFG      XA:2198 LAP_2LID_QTL_RT QTL_DECILE_10  2020     37.7  M         
# ℹ 46,060 more rows

LAP_2FTM_NOC_RT_A: Gender income gap, ratio of women’s to men’s labour income – ILO modelled estimates, Nov. 202

Code

df_gender_income_gap <- get_ilostat("LAP_2GDP_NOC_RT_A", cache = FALSE) |> 
  mutate(time = as.numeric(time))
df_gender_income_gap

# A tibble: 4,607 × 6
   ref_area source  indicator        time obs_value obs_status
   <chr>    <chr>   <chr>           <dbl>     <dbl> <chr>     
 1 AFG      XA:2198 LAP_2GDP_NOC_RT  2020      45.0 I         
 2 AFG      XA:2198 LAP_2GDP_NOC_RT  2019      44.0 I         
 3 AFG      XA:2198 LAP_2GDP_NOC_RT  2018      44.4 I         
 4 AFG      XA:2198 LAP_2GDP_NOC_RT  2017      44.3 I         
 5 AFG      XA:2198 LAP_2GDP_NOC_RT  2016      44.4 I         
 6 AFG      XA:2198 LAP_2GDP_NOC_RT  2015      44.5 I         
 7 AFG      XA:2198 LAP_2GDP_NOC_RT  2014      44.4 I         
 8 AFG      XA:2198 LAP_2GDP_NOC_RT  2013      44.0 I         
 9 AFG      XA:2198 LAP_2GDP_NOC_RT  2012      43.0 I         
10 AFG      XA:2198 LAP_2GDP_NOC_RT  2011      44.8 I         
# ℹ 4,597 more rows

4つの指標一度に取ることも可能。

Code

df_income <- get_ilostat(c("SDG_1041_NOC_RT_A", "LAP_2GDP_NOC_RT_A", "LAP_2LID_QTL_RT_A", "LAP_2FTM_NOC_RT_A"), cache = FALSE) |> 
  mutate(time = as.numeric(time))
df_income

# A tibble: 55,454 × 7
   ref_area source  indicator       classif1  time obs_value obs_status
   <chr>    <chr>   <chr>           <chr>    <dbl>     <dbl> <chr>     
 1 AFG      XA:2198 SDG_1041_NOC_RT <NA>      2020      45.0 <NA>      
 2 AFG      XA:2198 SDG_1041_NOC_RT <NA>      2019      44.0 <NA>      
 3 AFG      XA:2198 SDG_1041_NOC_RT <NA>      2018      44.4 <NA>      
 4 AFG      XA:2198 SDG_1041_NOC_RT <NA>      2017      44.3 <NA>      
 5 AFG      XA:2198 SDG_1041_NOC_RT <NA>      2016      44.4 <NA>      
 6 AFG      XA:2198 SDG_1041_NOC_RT <NA>      2015      44.5 <NA>      
 7 AFG      XA:2198 SDG_1041_NOC_RT <NA>      2014      44.4 <NA>      
 8 AFG      XA:2198 SDG_1041_NOC_RT <NA>      2013      44.0 <NA>      
 9 AFG      XA:2198 SDG_1041_NOC_RT <NA>      2012      43.0 <NA>      
10 AFG      XA:2198 SDG_1041_NOC_RT <NA>      2011      44.8 <NA>      
# ℹ 55,444 more rows
…
